Rooms,Square Footage,Price,State
1,1100,100,MN
1,1200,200,MN
2,1650,250,IA
3,2890,735,CA
3,1750,300,IA
5,2450,550,MN
4,2000,715,CA
3,1945,750,CA
5,2675,750,MN
2,1305,325,IA
1,1250,550,CA
1,1365,185,IA
2,2150,650,CA
2,1890,220,IA
4,3560,550,MN
3,3145,365,MN
4,4155,485,IA
4,3875,895,CA
5,5535,680,MN

